2019-09-20 18:33:16,748 ERROR: Exception on / [GET] [in /mnt/c/Users/shash/Videos/Mountblue/Project/Flask Tutorials/microblog/venv/lib/python3.5/site-packages/flask/app.py:1891]
Traceback (most recent call last):
  File "/mnt/c/Users/shash/Videos/Mountblue/Project/Flask Tutorials/microblog/venv/lib/python3.5/site-packages/flask/app.py", line 2446, in wsgi_app
    response = self.full_dispatch_request()
  File "/mnt/c/Users/shash/Videos/Mountblue/Project/Flask Tutorials/microblog/venv/lib/python3.5/site-packages/flask/app.py", line 1951, in full_dispatch_request
    rv = self.handle_user_exception(e)
  File "/mnt/c/Users/shash/Videos/Mountblue/Project/Flask Tutorials/microblog/venv/lib/python3.5/site-packages/flask/app.py", line 1820, in handle_user_exception
    reraise(exc_type, exc_value, tb)
  File "/mnt/c/Users/shash/Videos/Mountblue/Project/Flask Tutorials/microblog/venv/lib/python3.5/site-packages/flask/_compat.py", line 39, in reraise
    raise value
  File "/mnt/c/Users/shash/Videos/Mountblue/Project/Flask Tutorials/microblog/venv/lib/python3.5/site-packages/flask/app.py", line 1949, in full_dispatch_request
    rv = self.dispatch_request()
  File "/mnt/c/Users/shash/Videos/Mountblue/Project/Flask Tutorials/microblog/venv/lib/python3.5/site-packages/flask/app.py", line 1935, in dispatch_request
    return self.view_functions[rule.endpoint](**req.view_args)
  File "/mnt/c/Users/shash/Videos/Mountblue/Project/Flask Tutorials/microblog/venv/lib/python3.5/site-packages/flask_login/utils.py", line 261, in decorated_view
    return func(*args, **kwargs)
  File "/mnt/c/Users/shash/Videos/Mountblue/Project/Flask Tutorials/microblog/app/routes.py", line 51, in index
    return render_template('index.html',title='Home',form= form, posts=posts.items, next_url=next_url, prev_url=prev_url)
  File "/mnt/c/Users/shash/Videos/Mountblue/Project/Flask Tutorials/microblog/venv/lib/python3.5/site-packages/flask/templating.py", line 140, in render_template
    ctx.app,
  File "/mnt/c/Users/shash/Videos/Mountblue/Project/Flask Tutorials/microblog/venv/lib/python3.5/site-packages/flask/templating.py", line 120, in _render
    rv = template.render(context)
  File "/mnt/c/Users/shash/Videos/Mountblue/Project/Flask Tutorials/microblog/venv/lib/python3.5/site-packages/jinja2/environment.py", line 1008, in render
    return self.environment.handle_exception(exc_info, True)
  File "/mnt/c/Users/shash/Videos/Mountblue/Project/Flask Tutorials/microblog/venv/lib/python3.5/site-packages/jinja2/environment.py", line 780, in handle_exception
    reraise(exc_type, exc_value, tb)
  File "/mnt/c/Users/shash/Videos/Mountblue/Project/Flask Tutorials/microblog/venv/lib/python3.5/site-packages/jinja2/_compat.py", line 37, in reraise
    raise value.with_traceback(tb)
  File "/mnt/c/Users/shash/Videos/Mountblue/Project/Flask Tutorials/microblog/app/templates/index.html", line 2, in top-level template code
    {% import 'bootstrap/wtf.html' as wtf %}
jinja2.exceptions.TemplateRuntimeError: extended multiple times
2019-09-20 18:34:36,235 INFO: Microblog startup [in /mnt/c/Users/shash/Videos/Mountblue/Project/Flask Tutorials/microblog/app/__init__.py:48]
2019-09-20 18:34:39,105 ERROR: Exception on / [GET] [in /mnt/c/Users/shash/Videos/Mountblue/Project/Flask Tutorials/microblog/venv/lib/python3.5/site-packages/flask/app.py:1891]
Traceback (most recent call last):
  File "/mnt/c/Users/shash/Videos/Mountblue/Project/Flask Tutorials/microblog/venv/lib/python3.5/site-packages/flask/app.py", line 2446, in wsgi_app
    response = self.full_dispatch_request()
  File "/mnt/c/Users/shash/Videos/Mountblue/Project/Flask Tutorials/microblog/venv/lib/python3.5/site-packages/flask/app.py", line 1951, in full_dispatch_request
    rv = self.handle_user_exception(e)
  File "/mnt/c/Users/shash/Videos/Mountblue/Project/Flask Tutorials/microblog/venv/lib/python3.5/site-packages/flask/app.py", line 1820, in handle_user_exception
    reraise(exc_type, exc_value, tb)
  File "/mnt/c/Users/shash/Videos/Mountblue/Project/Flask Tutorials/microblog/venv/lib/python3.5/site-packages/flask/_compat.py", line 39, in reraise
    raise value
  File "/mnt/c/Users/shash/Videos/Mountblue/Project/Flask Tutorials/microblog/venv/lib/python3.5/site-packages/flask/app.py", line 1949, in full_dispatch_request
    rv = self.dispatch_request()
  File "/mnt/c/Users/shash/Videos/Mountblue/Project/Flask Tutorials/microblog/venv/lib/python3.5/site-packages/flask/app.py", line 1935, in dispatch_request
    return self.view_functions[rule.endpoint](**req.view_args)
  File "/mnt/c/Users/shash/Videos/Mountblue/Project/Flask Tutorials/microblog/venv/lib/python3.5/site-packages/flask_login/utils.py", line 261, in decorated_view
    return func(*args, **kwargs)
  File "/mnt/c/Users/shash/Videos/Mountblue/Project/Flask Tutorials/microblog/app/routes.py", line 51, in index
    return render_template('index.html',title='Home',form= form, posts=posts.items, next_url=next_url, prev_url=prev_url)
  File "/mnt/c/Users/shash/Videos/Mountblue/Project/Flask Tutorials/microblog/venv/lib/python3.5/site-packages/flask/templating.py", line 140, in render_template
    ctx.app,
  File "/mnt/c/Users/shash/Videos/Mountblue/Project/Flask Tutorials/microblog/venv/lib/python3.5/site-packages/flask/templating.py", line 120, in _render
    rv = template.render(context)
  File "/mnt/c/Users/shash/Videos/Mountblue/Project/Flask Tutorials/microblog/venv/lib/python3.5/site-packages/jinja2/environment.py", line 1008, in render
    return self.environment.handle_exception(exc_info, True)
  File "/mnt/c/Users/shash/Videos/Mountblue/Project/Flask Tutorials/microblog/venv/lib/python3.5/site-packages/jinja2/environment.py", line 780, in handle_exception
    reraise(exc_type, exc_value, tb)
  File "/mnt/c/Users/shash/Videos/Mountblue/Project/Flask Tutorials/microblog/venv/lib/python3.5/site-packages/jinja2/_compat.py", line 37, in reraise
    raise value.with_traceback(tb)
  File "/mnt/c/Users/shash/Videos/Mountblue/Project/Flask Tutorials/microblog/app/templates/index.html", line 2, in top-level template code
    {% import 'bootstrap/wtf.html' as wtf %}
jinja2.exceptions.TemplateRuntimeError: extended multiple times
2019-09-20 18:35:11,890 INFO: Microblog startup [in /mnt/c/Users/shash/Videos/Mountblue/Project/Flask Tutorials/microblog/app/__init__.py:48]
