2019-09-21 14:10:21,812 ERROR: Exception on /favicon.ico [GET] [in /mnt/c/Users/shash/Videos/Mountblue/Project/Flask Tutorials/microblog/venv/lib/python3.5/site-packages/flask/app.py:1891]
Traceback (most recent call last):
  File "/mnt/c/Users/shash/Videos/Mountblue/Project/Flask Tutorials/microblog/venv/lib/python3.5/site-packages/flask/app.py", line 1949, in full_dispatch_request
    rv = self.dispatch_request()
  File "/mnt/c/Users/shash/Videos/Mountblue/Project/Flask Tutorials/microblog/venv/lib/python3.5/site-packages/flask/app.py", line 1925, in dispatch_request
    self.raise_routing_exception(req)
  File "/mnt/c/Users/shash/Videos/Mountblue/Project/Flask Tutorials/microblog/venv/lib/python3.5/site-packages/flask/app.py", line 1907, in raise_routing_exception
    raise request.routing_exception
  File "/mnt/c/Users/shash/Videos/Mountblue/Project/Flask Tutorials/microblog/venv/lib/python3.5/site-packages/flask/ctx.py", line 350, in match_request
    result = self.url_adapter.match(return_rule=True)
  File "/mnt/c/Users/shash/Videos/Mountblue/Project/Flask Tutorials/microblog/venv/lib/python3.5/site-packages/werkzeug/routing.py", line 1799, in match
    raise NotFound()
werkzeug.exceptions.NotFound: 404 Not Found: The requested URL was not found on the server. If you entered the URL manually please check your spelling and try again.

During handling of the above exception, another exception occurred:

Traceback (most recent call last):
  File "/mnt/c/Users/shash/Videos/Mountblue/Project/Flask Tutorials/microblog/venv/lib/python3.5/site-packages/flask/app.py", line 2446, in wsgi_app
    response = self.full_dispatch_request()
  File "/mnt/c/Users/shash/Videos/Mountblue/Project/Flask Tutorials/microblog/venv/lib/python3.5/site-packages/flask/app.py", line 1951, in full_dispatch_request
    rv = self.handle_user_exception(e)
  File "/mnt/c/Users/shash/Videos/Mountblue/Project/Flask Tutorials/microblog/venv/lib/python3.5/site-packages/flask/app.py", line 1815, in handle_user_exception
    return self.handle_http_exception(e)
  File "/mnt/c/Users/shash/Videos/Mountblue/Project/Flask Tutorials/microblog/venv/lib/python3.5/site-packages/flask/app.py", line 1743, in handle_http_exception
    return handler(e)
  File "/mnt/c/Users/shash/Videos/Mountblue/Project/Flask Tutorials/microblog/app/errors.py", line 6, in not_found_error
    return render_template('404.html'), 404
  File "/mnt/c/Users/shash/Videos/Mountblue/Project/Flask Tutorials/microblog/venv/lib/python3.5/site-packages/flask/templating.py", line 140, in render_template
    ctx.app,
  File "/mnt/c/Users/shash/Videos/Mountblue/Project/Flask Tutorials/microblog/venv/lib/python3.5/site-packages/flask/templating.py", line 120, in _render
    rv = template.render(context)
  File "/mnt/c/Users/shash/Videos/Mountblue/Project/Flask Tutorials/microblog/venv/lib/python3.5/site-packages/jinja2/environment.py", line 1008, in render
    return self.environment.handle_exception(exc_info, True)
  File "/mnt/c/Users/shash/Videos/Mountblue/Project/Flask Tutorials/microblog/venv/lib/python3.5/site-packages/jinja2/environment.py", line 780, in handle_exception
    reraise(exc_type, exc_value, tb)
  File "/mnt/c/Users/shash/Videos/Mountblue/Project/Flask Tutorials/microblog/venv/lib/python3.5/site-packages/jinja2/_compat.py", line 37, in reraise
    raise value.with_traceback(tb)
  File "/mnt/c/Users/shash/Videos/Mountblue/Project/Flask Tutorials/microblog/app/templates/404.html", line 1, in top-level template code
    {% extends "base.html" %}
  File "/mnt/c/Users/shash/Videos/Mountblue/Project/Flask Tutorials/microblog/app/templates/base.html", line 1, in top-level template code
    {% extends 'bootstrap/base.html' %}
  File "/mnt/c/Users/shash/Videos/Mountblue/Project/Flask Tutorials/microblog/venv/lib/python3.5/site-packages/flask_bootstrap/templates/bootstrap/base.html", line 1, in top-level template code
    {% block doc -%}
  File "/mnt/c/Users/shash/Videos/Mountblue/Project/Flask Tutorials/microblog/venv/lib/python3.5/site-packages/flask_bootstrap/templates/bootstrap/base.html", line 4, in block "doc"
    {%- block html %}
  File "/mnt/c/Users/shash/Videos/Mountblue/Project/Flask Tutorials/microblog/venv/lib/python3.5/site-packages/flask_bootstrap/templates/bootstrap/base.html", line 20, in block "html"
    {% block body -%}
  File "/mnt/c/Users/shash/Videos/Mountblue/Project/Flask Tutorials/microblog/venv/lib/python3.5/site-packages/flask_bootstrap/templates/bootstrap/base.html", line 23, in block "body"
    {% block content -%}
  File "/mnt/c/Users/shash/Videos/Mountblue/Project/Flask Tutorials/microblog/app/templates/base.html", line 51, in block "content"
    {% block app_content %}{% endblock %}
  File "/mnt/c/Users/shash/Videos/Mountblue/Project/Flask Tutorials/microblog/app/templates/404.html", line 4, in block "app_content"
    <h1>{{ _('File Not Found') }}</h1>
jinja2.exceptions.UndefinedError: '_' is undefined
2019-09-21 14:11:33,896 ERROR: Exception on /favicon.ico [GET] [in /mnt/c/Users/shash/Videos/Mountblue/Project/Flask Tutorials/microblog/venv/lib/python3.5/site-packages/flask/app.py:1891]
Traceback (most recent call last):
  File "/mnt/c/Users/shash/Videos/Mountblue/Project/Flask Tutorials/microblog/venv/lib/python3.5/site-packages/flask/app.py", line 1949, in full_dispatch_request
    rv = self.dispatch_request()
  File "/mnt/c/Users/shash/Videos/Mountblue/Project/Flask Tutorials/microblog/venv/lib/python3.5/site-packages/flask/app.py", line 1925, in dispatch_request
    self.raise_routing_exception(req)
  File "/mnt/c/Users/shash/Videos/Mountblue/Project/Flask Tutorials/microblog/venv/lib/python3.5/site-packages/flask/app.py", line 1907, in raise_routing_exception
    raise request.routing_exception
  File "/mnt/c/Users/shash/Videos/Mountblue/Project/Flask Tutorials/microblog/venv/lib/python3.5/site-packages/flask/ctx.py", line 350, in match_request
    result = self.url_adapter.match(return_rule=True)
  File "/mnt/c/Users/shash/Videos/Mountblue/Project/Flask Tutorials/microblog/venv/lib/python3.5/site-packages/werkzeug/routing.py", line 1799, in match
    raise NotFound()
werkzeug.exceptions.NotFound: 404 Not Found: The requested URL was not found on the server. If you entered the URL manually please check your spelling and try again.

During handling of the above exception, another exception occurred:

Traceback (most recent call last):
  File "/mnt/c/Users/shash/Videos/Mountblue/Project/Flask Tutorials/microblog/venv/lib/python3.5/site-packages/flask/app.py", line 2446, in wsgi_app
    response = self.full_dispatch_request()
  File "/mnt/c/Users/shash/Videos/Mountblue/Project/Flask Tutorials/microblog/venv/lib/python3.5/site-packages/flask/app.py", line 1951, in full_dispatch_request
    rv = self.handle_user_exception(e)
  File "/mnt/c/Users/shash/Videos/Mountblue/Project/Flask Tutorials/microblog/venv/lib/python3.5/site-packages/flask/app.py", line 1815, in handle_user_exception
    return self.handle_http_exception(e)
  File "/mnt/c/Users/shash/Videos/Mountblue/Project/Flask Tutorials/microblog/venv/lib/python3.5/site-packages/flask/app.py", line 1743, in handle_http_exception
    return handler(e)
  File "/mnt/c/Users/shash/Videos/Mountblue/Project/Flask Tutorials/microblog/app/errors.py", line 6, in not_found_error
    return render_template('404.html'), 404
  File "/mnt/c/Users/shash/Videos/Mountblue/Project/Flask Tutorials/microblog/venv/lib/python3.5/site-packages/flask/templating.py", line 140, in render_template
    ctx.app,
  File "/mnt/c/Users/shash/Videos/Mountblue/Project/Flask Tutorials/microblog/venv/lib/python3.5/site-packages/flask/templating.py", line 120, in _render
    rv = template.render(context)
  File "/mnt/c/Users/shash/Videos/Mountblue/Project/Flask Tutorials/microblog/venv/lib/python3.5/site-packages/jinja2/environment.py", line 1008, in render
    return self.environment.handle_exception(exc_info, True)
  File "/mnt/c/Users/shash/Videos/Mountblue/Project/Flask Tutorials/microblog/venv/lib/python3.5/site-packages/jinja2/environment.py", line 780, in handle_exception
    reraise(exc_type, exc_value, tb)
  File "/mnt/c/Users/shash/Videos/Mountblue/Project/Flask Tutorials/microblog/venv/lib/python3.5/site-packages/jinja2/_compat.py", line 37, in reraise
    raise value.with_traceback(tb)
  File "/mnt/c/Users/shash/Videos/Mountblue/Project/Flask Tutorials/microblog/app/templates/404.html", line 1, in top-level template code
    {% extends "base.html" %}
  File "/mnt/c/Users/shash/Videos/Mountblue/Project/Flask Tutorials/microblog/app/templates/base.html", line 1, in top-level template code
    {% extends 'bootstrap/base.html' %}
  File "/mnt/c/Users/shash/Videos/Mountblue/Project/Flask Tutorials/microblog/venv/lib/python3.5/site-packages/flask_bootstrap/templates/bootstrap/base.html", line 1, in top-level template code
    {% block doc -%}
  File "/mnt/c/Users/shash/Videos/Mountblue/Project/Flask Tutorials/microblog/venv/lib/python3.5/site-packages/flask_bootstrap/templates/bootstrap/base.html", line 4, in block "doc"
    {%- block html %}
  File "/mnt/c/Users/shash/Videos/Mountblue/Project/Flask Tutorials/microblog/venv/lib/python3.5/site-packages/flask_bootstrap/templates/bootstrap/base.html", line 20, in block "html"
    {% block body -%}
  File "/mnt/c/Users/shash/Videos/Mountblue/Project/Flask Tutorials/microblog/venv/lib/python3.5/site-packages/flask_bootstrap/templates/bootstrap/base.html", line 23, in block "body"
    {% block content -%}
  File "/mnt/c/Users/shash/Videos/Mountblue/Project/Flask Tutorials/microblog/app/templates/base.html", line 51, in block "content"
    {% block app_content %}{% endblock %}
  File "/mnt/c/Users/shash/Videos/Mountblue/Project/Flask Tutorials/microblog/app/templates/404.html", line 4, in block "app_content"
    <h1>{{ _('File Not Found') }}</h1>
jinja2.exceptions.UndefinedError: '_' is undefined
